lab11/waveform/copy-normal.vcd
$date
	Sun Jun 23 12:55:07 2024
$end
$version
	Icarus Verilog
$end
$timescale
	1ns
$end
$scope module testbench $end
$var wire 10 ! Raddr [9:0] $end
$var wire 1 " Rden $end
$var wire 10 # Waddr [9:0] $end
$var wire 32 $ Wdata [31:0] $end
$var wire 1 % Wren $end
$var wire 4 & Wstrb [3:0] $end
$var wire 1 ' mips_mem_rd $end
$var wire 32 ( mips_mem_rdata [31:0] $end
$var wire 4 ) mips_mem_wstrb [3:0] $end
$var wire 32 * mips_mem_wdata [31:0] $end
$var wire 32 + mips_mem_addr [31:0] $end
$var wire 32 , Rdata [31:0] $end
$var wire 32 - PC [31:0] $end
$var wire 1 . MemWrite $end
$var wire 1 / MemRead $end
$var wire 32 0 Instruction [31:0] $end
$var reg 1 1 mips_cpu_clk $end
$var reg 1 2 mips_cpu_reset $end
$scope module u_ideal_mem $end
$var wire 10 3 Raddr1 [9:0] $end
$var wire 10 4 Raddr2 [9:0] $end
$var wire 32 5 Rdata1 [31:0] $end
$var wire 32 6 Rdata2 [31:0] $end
$var wire 1 7 Rden1 $end
$var wire 1 " Rden2 $end
$var wire 10 8 Waddr [9:0] $end
$var wire 32 9 Wdata [31:0] $end
$var wire 1 % Wren $end
$var wire 4 : Wstrb [3:0] $end
$var wire 1 1 clk $end
$var wire 8 ; byte_3 [7:0] $end
$var wire 8 < byte_2 [7:0] $end
$var wire 8 = byte_1 [7:0] $end
$var wire 8 > byte_0 [7:0] $end
$upscope $end
$scope module u_mips_cpu $end
$var wire 32 ? Instruction [31:0] $end
$var wire 32 @ PCJR [31:0] $end
$var wire 5 A RF_raddr1 [4:0] $end
$var wire 5 B RF_waddr [4:0] $end
$var wire 32 C RF_wdata [31:0] $end
$var wire 32 D Read_data [31:0] $end
$var wire 1 1 clk $end
$var wire 1 E jaljalr $end
$var wire 1 F jrra $end
$var wire 32 G nextPC [31:0] $end
$var wire 1 2 rst $end
$var wire 5 H sa [4:0] $end
$var wire 5 I rt [4:0] $end
$var wire 5 J rs [4:0] $end
$var wire 5 K rd [4:0] $end
$var wire 6 L op [5:0] $end
$var wire 6 M func [5:0] $end
$var wire 4 N Write_strb [3:0] $end
$var wire 32 O Write_data [31:0] $end
$var wire 32 P Signimm [31:0] $end
$var wire 1 Q RegDst $end
$var wire 1 R RF_wen $end
$var wire 32 S RF_rdata2 [31:0] $end
$var wire 32 T RF_rdata1 [31:0] $end
$var wire 5 U RF_raddr2 [4:0] $end
$var wire 32 V PCadd [31:0] $end
$var wire 2 W PCSrc [1:0] $end
$var wire 32 X PCJA [31:0] $end
$var wire 32 Y PCBranch [31:0] $end
$var wire 2 Z MemtoReg [1:0] $end
$var wire 1 . MemWrite $end
$var wire 1 / MemRead $end
$var wire 32 [ Data_out [31:0] $end
$var wire 32 \ Address_out [31:0] $end
$var wire 32 ] Address [31:0] $end
$var wire 1 ^ ALUsa $end
$var wire 1 _ ALU_Zero $end
$var wire 1 ` ALU_Signal $end
$var wire 32 a ALU_Result [31:0] $end
$var wire 1 b ALU_Overflow $end
$var wire 1 c ALU_CarryOut $end
$var wire 32 d ALU_B [31:0] $end
$var wire 4 e ALU_ALUop [3:0] $end
$var wire 32 f ALU_A [31:0] $end
$var wire 1 g ALUSrc $end
$var reg 1 h CFIsignal $end
$var reg 32 i PC [31:0] $end
$var reg 32 j sp [31:0] $end
$scope module ALU $end
$var wire 32 k A [31:0] $end
$var wire 32 l B [31:0] $end
$var wire 1 m Overflow_Add $end
$var wire 1 n Overflow_Sub $end
$var wire 32 o Result [31:0] $end
$var wire 32 p Result_And [31:0] $end
$var wire 32 q Result_Mov [31:0] $end
$var wire 32 r Result_Nor [31:0] $end
$var wire 32 s Result_Or [31:0] $end
$var wire 32 t Result_Slt [31:0] $end
$var wire 32 u Result_Xor [31:0] $end
$var wire 1 _ Zero $end
$var wire 1 ` Signal $end
$var wire 32 v Result_Sub [31:0] $end
$var wire 32 w Result_Srl [31:0] $end
$var wire 32 x Result_Sra [31:0] $end
$var wire 32 y Result_Sltu [31:0] $end
$var wire 32 z Result_Sll [31:0] $end
$var wire 33 { Result_S [32:0] $end
$var wire 32 | Result_Add [31:0] $end
$var wire 1 b Overflow $end
$var wire 1 c CarryOut $end
$var wire 4 } ALUop [3:0] $end
$upscope $end
$scope module Controller $end
$var wire 1 ~ ALU_And $end
$var wire 1 !" ALU_Bgez $end
$var wire 1 "" ALU_Movn $end
$var wire 1 #" ALU_Movz $end
$var wire 1 $" ALU_Nor $end
$var wire 1 %" ALU_Or $end
$var wire 1 &" ALU_Sll $end
$var wire 1 '" ALU_Slt $end
$var wire 1 (" ALU_Sltu $end
$var wire 1 )" ALU_Sra $end
$var wire 1 *" ALU_Srl $end
$var wire 1 +" ALU_Sub $end
$var wire 1 ," ALU_Xor $end
$var wire 4 -" ALUop [3:0] $end
$var wire 1 ^ ALUsa $end
$var wire 1 ." Branch $end
$var wire 1 /" Branch1 $end
$var wire 1 0" Branch2 $end
$var wire 1 1" Branch3 $end
$var wire 1 2" BranchSignal $end
$var wire 1 3" I_type $end
$var wire 32 4" Instruction [31:0] $end
$var wire 1 5" J_type $end
$var wire 1 / MemRead $end
$var wire 1 . MemWrite $end
$var wire 1 R RegWrite $end
$var wire 1 ` Signal $end
$var wire 1 _ Zero $end
$var wire 1 6" jaljalr $end
$var wire 1 7" jrra $end
$var wire 6 8" op [5:0] $end
$var wire 6 9" func [5:0] $end
$var wire 1 Q RegDst $end
$var wire 1 :" R_type $end
$var wire 2 ;" PCSrc [1:0] $end
$var wire 2 <" MemtoReg [1:0] $end
$var wire 1 g ALUSrc $end
$upscope $end
$scope module Dataconverter $end
$var wire 32 =" Address_in [31:0] $end
$var wire 32 >" Data_in [31:0] $end
$var wire 32 ?" Data_lb [31:0] $end
$var wire 32 @" Data_lbu [31:0] $end
$var wire 32 A" Data_lh [31:0] $end
$var wire 32 B" Data_lhu [31:0] $end
$var wire 32 C" Data_load [31:0] $end
$var wire 32 D" Data_lwl [31:0] $end
$var wire 32 E" Data_lwr [31:0] $end
$var wire 32 F" Data_sb [31:0] $end
$var wire 32 G" Data_sh [31:0] $end
$var wire 32 H" Data_store [31:0] $end
$var wire 32 I" Data_swl [31:0] $end
$var wire 32 J" Data_swr [31:0] $end
$var wire 32 K" Instruction [31:0] $end
$var wire 4 L" Write_strb [3:0] $end
$var wire 4 M" Write_strb_sb [3:0] $end
$var wire 4 N" Write_strb_sh [3:0] $end
$var wire 4 O" Write_strb_swl [3:0] $end
$var wire 4 P" Write_strb_swr [3:0] $end
$var wire 6 Q" op [5:0] $end
$var wire 2 R" n [1:0] $end
$var wire 32 S" Data_rf2 [31:0] $end
$var wire 32 T" Data_out [31:0] $end
$var wire 32 U" Address_out [31:0] $end
$upscope $end
$scope module RF $end
$var wire 1 1 clk $end
$var wire 5 V" raddr1 [4:0] $end
$var wire 5 W" raddr2 [4:0] $end
$var wire 1 2 rst $end
$var wire 5 X" waddr [4:0] $end
$var wire 32 Y" wdata [31:0] $end
$var wire 1 R wen $end
$var wire 32 Z" rdata2 [31:0] $end
$var wire 32 [" rdata1 [31:0] $end
$upscope $end
$upscope $end
$upscope $end
$enddefinitions $end
#0
$dumpvars
b0 ["
b0 Z"
b0 Y"
b11110 X"
b0 W"
b0 V"
b0 U"
b0 T"
b0 S"
b0 R"
b0 Q"
b1111 P"
b1 O"
b11 N"
b1 M"
b1 L"
b1111000000100101 K"
b0 J"
b0 I"
b0 H"
b0 G"
b0 F"
b0 E"
b0 D"
b0 C"
b0 B"
b0 A"
b0 @"
b0 ?"
b0 >"
b0 ="
b0 <"
b0 ;"
1:"
b100101 9"
b0 8"
07"
06"
05"
b1111000000100101 4"
03"
02"
01"
00"
0/"
0."
b10 -"
0,"
0+"
0*"
0)"
0("
0'"
0&"
1%"
0$"
0#"
0""
0!"
0~
b10 }
b0 |
b0 {
b0 z
b0 y
b0 x
b0 w
b0 v
b0 u
b0 t
b0 s
b11111111111111111111111111111111 r
b0 q
b0 p
b0 o
0n
0m
b0 l
b0 k
b10000000000000000000100000000000 j
b0 i
0h
0g
b0 f
b10 e
b0 d
0c
0b
b0 a
0`
0_
0^
b0 ]
b0 \
b0 [
b0 Z
b11111111111111111100000010011000 Y
b111100000010010100 X
b0 W
b100 V
b0 U
b0 T
b0 S
1R
1Q
b11111111111111111111000000100101 P
b0 O
b1 N
b100101 M
b0 L
b11110 K
b0 J
b0 I
b0 H
b100 G
0F
0E
b0 D
b0 C
b11110 B
b0 A
b0 @
b1111000000100101 ?
b100101 >
b11110000 =
b0 <
b0 ;
b0 :
b0 9
b0 8
17
b0 6
b1111000000100101 5
b0 4
b0 3
12
01
b1111000000100101 0
0/
0.
b0 -
b0 ,
b0 +
b0 *
b1 )
b0 (
0'
b0 &
0%
b0 $
b0 #
0"
b0 !
$end
#10
11
#20
01
#30
b1111 P"
b11 N"
b10000000000000010000000000000000 +
b10000000000000010000000000000000 ]
b0 E"
b1 M"
b1 O"
b10000000000000010000000000000000 C
b10000000000000010000000000000000 Y"
b10000000000000010000000000000000 \
b10000000000000010000000000000000 U"
b0 R"
b10000000000000010000000000000000 a
b10000000000000010000000000000000 o
b10000000000000010000000000000000 ="
b0 e
b0 }
b0 -"
b0 W
b0 ;"
bx I"
b0xxxxxxxx F"
b0xxxxxxxxxxxxxxxxxxxxxxxx D"
1n
b0 t
02"
b0xxxxxxxxxxxxxxxx G"
bx J"
b1111111111111101111111111111111 r
0c
b10000000000000010000000000000000 |
b10000000000000010000000000000000 v
b0 y
b1111 )
b1111 N
b1111 L"
b10000000000000010000000000000000 s
b10000000000000010000000000000000 u
b10000000000000010000000000000000 {
00"
1g
b10000000000000010000000000000000 z
b10000000000000010000000000000000 w
b10000000000000010000000000000000 x
b10000000000000010000000000000000 d
b10000000000000010000000000000000 l
0Q
bx S
bx S"
bx Z"
b11101 B
b11101 X"
0."
0%"
b1000 G
b10000000000000010000000000000000 P
b11101 U
b11101 W"
13"
b11101100000000000000100 X
b1111 L
b11101 I
b10000 K
b1 M
0:"
b1111 8"
b1 9"
b1111 Q"
b111100000111011000000000000001 0
b111100000111011000000000000001 5
b111100000111011000000000000001 ?
b111100000111011000000000000001 4"
b111100000111011000000000000001 K"
b1 3
b1000000000000001000 Y
b1000 V
b100 -
b100 i
11
02
#40
01
#50
b0 E"
b1 M"
b1 O"
b1111 P"
b11 N"
b10000000000000001001000000000000 +
b10000000000000001001000000000000 ]
b10000000000000001001000000000000 C
b10000000000000001001000000000000 Y"
b0 R"
b10000000000000001001000000000000 \
b10000000000000001001000000000000 U"
b10000000000000001001000000000000 a
b10000000000000001001000000000000 o
b10000000000000001001000000000000 ="
b0 *
b0 O
0n
b1 t
b0 [
b0 T"
b0 H"
b10000000000000010000000000000000 p
b110111111111111 r
b11 )
b11 N
b11 L"
b1000000000000000010000000 I"
b0 F"
b10000000000000000 D"
b11111111111111111001000000000000 s
b1111111111111101001000000000000 u
1c
b10000000000000001001000000000000 |
b10000000000000001001000000000000 v
b1 y
b0 G"
b10000000000000010000000000000000 J"
b11111111111111111001000000000000 z
b11111111111111111001000000000000 w
b11111111111111111001000000000000 x
b11111111111111111001000000000000 d
b11111111111111111001000000000000 l
b10000000000000010000000000000000 q
b110000000000000001001000000000000 {
b10000000000000010000000000000000 f
b10000000000000010000000000000000 k
b1100 G
b11111111111111111001000000000000 P
b10000000000000010000000000000000 @
b10000000000000010000000000000000 T
b10000000000000010000000000000000 ["
b1110111101100100000000000000 X
b1001 L
b11101 A
b11101 V"
b11101 J
b10010 K
b0 M
b1001 8"
b0 9"
b1001 Q"
b100111101111011001000000000000 0
b100111101111011001000000000000 5
b100111101111011001000000000000 ?
b100111101111011001000000000000 4"
b100111101111011001000000000000 K"
b10000000000000010000000000000000 S
b10000000000000010000000000000000 S"
b10000000000000010000000000000000 Z"
b10 3
b11111111111111100100000000001100 Y
b1100 V
b1000 -
b1000 i
11
#60
01
#70
b0 \
b0 U"
b0 a
b0 o
b0 ="
b0 t
0b
0m
b11111111111111111111111111111111 r
b1000000000 #
b1000000000 8
0n
b10100 >
b0 =
0g
b0 [
b0 T"
b0 s
1Q
b10100 C
b10100 Y"
b0 H"
b1111 )
b1111 N
b1111 L"
b0 I"
b0 D"
b0 z
b0 w
b0 x
b0 d
b0 l
b10000000000000000000100000000000 +
b10000000000000000000100000000000 ]
0c
b0 y
b11111 B
b11111 X"
b11 W
b11 ;"
b1111 &
b1111 :
b10100 $
b10100 9
b0 G"
b0 J"
b100000100 P
b10100 *
b10100 O
03"
b10 Z
b10 <"
1%
1.
b10000010000 G
1E
b0 U
b0 W"
15"
16"
b0 p
b0 u
b0 |
b0 v
b10000010000 X
b11 L
b0 A
b0 V"
b0 J
b0 I
b0 K
b100 H
b100 M
b11 8"
b100 9"
b11 Q"
b0 q
b0 {
b0 f
b0 k
b1100000000000000000100000100 0
b1100000000000000000100000100 5
b1100000000000000000100000100 ?
b1100000000000000000100000100 4"
b1100000000000000000100000100 K"
b0 @
b0 T
b0 ["
b0 S
b0 S"
b0 Z"
b11 3
b10000100000 Y
b10000 V
b1100 -
b1100 i
11
#80
01
#90
b10000000000000001000111111101000 \
b10000000000000001000111111101000 U"
b10000000000000001000111111101000 a
b10000000000000001000111111101000 o
b10000000000000001000111111101000 ="
b1001000000000000 [
b1001000000000000 T"
b1001000000000000 H"
0b
b100100000000000010000000 I"
b1001000000000000 D"
0m
b11101 B
b11101 X"
b1111111111111110110111111101000 u
b1001000000000000 G"
b10000000000000001001000000000000 J"
b1 t
1c
b1 y
01"
1g
b10111 r
0Q
b11 )
b11 N
b11 L"
b10000000000000001001000000000000 p
b11111111111111111111111111101000 s
b10000000000000001000111111101000 |
b10000000000000001000111111101000 v
b11111111111111111111111111101000 z
b11111111111111111111111111101000 w
b11111111111111111111111111101000 x
b11111111111111111111111111101000 d
b11111111111111111111111111101000 l
0."
b0 W
b0 ;"
b0 &
b0 :
b11111111111111111111111111101000 P
b10000010100 G
b10000000000000001001000000000000 q
b110000000000000001000111111101000 {
b10000000000000001001000000000000 f
b10000000000000001001000000000000 k
b10000000000000001001000000000000 S
b10000000000000001001000000000000 S"
b10000000000000001001000000000000 Z"
13"
b0 Z
b0 <"
0%
0.
b0 #
b0 8
b100101 >
b11110000 =
0E
b10000000000000001001000000000000 @
b10000000000000001001000000000000 T
b10000000000000001001000000000000 ["
b11101 U
b11101 W"
05"
06"
b1110111101111111111110100000 X
b1001 L
b11101 A
b11101 V"
b11101 J
b11101 I
b11111 K
b11111 H
b101000 M
b1001 8"
b101000 9"
b1001 Q"
b10000000000000001000111111101000 +
b10000000000000001000111111101000 ]
b0 $
b0 9
b10000000000000001000111111101000 C
b10000000000000001000111111101000 Y"
b100111101111011111111111101000 0
b100111101111011111111111101000 5
b100111101111011111111111101000 ?
b100111101111011111111111101000 4"
b100111101111011111111111101000 K"
b1001000000000000 *
b1001000000000000 O
b100000100 3
b10000000000000000000100000000100 j
b1110110100 Y
b10000010100 V
b10000010000 -
b10000010000 i
11
#100
01
#110
b10000000000000001000111111111100 +
b10000000000000001000111111111100 ]
b10000000000000001000111111111100 C
b10000000000000001000111111111100 Y"
b10000000000000001000111111111100 \
b10000000000000001000111111111100 U"
b10000000000000001000111111111100 a
b10000000000000001000111111111100 o
b10000000000000001000111111111100 ="
b0 ;
b10100 >
b0 =
b10100 *
b10100 O
b1111111111111110111000000000011 r
0c
b0 y
0R
b10100 [
b10100 T"
b10000000000000001000111111111100 s
b1111111111 #
b1111111111 8
b1111 &
b1111 :
b10100 $
b10100 9
b10100 H"
b1111 )
b1111 N
b1111 L"
b1010000000000 I"
b10100 F"
b10100 D"
b10100 d
b10100 l
b11111 B
b11111 X"
1%
1.
b10100 G"
b10100 J"
b10100 P
b10000011000 G
b11111 U
b11111 W"
b0 p
b10000000000000001000111111111100 u
b10000000000000001000111111111100 |
b10000000000000001000111111111100 v
b1010000000000 z
b0 w
b0 x
b1110111111000000000001010000 X
b101011 L
b11111 I
b0 K
b0 H
b10100 M
b101011 8"
b10100 9"
b101011 Q"
b10000000000000001000111111101000 q
b10000000000000001000111111111100 {
b10000000000000001000111111101000 f
b10000000000000001000111111101000 k
b10101111101111110000000000010100 0
b10101111101111110000000000010100 5
b10101111101111110000000000010100 ?
b10101111101111110000000000010100 4"
b10101111101111110000000000010100 K"
b10000000000000001000111111101000 @
b10000000000000001000111111101000 T
b10000000000000001000111111101000 ["
b10100 S
b10100 S"
b10100 Z"
b100000101 3
b10001101000 Y
b10000011000 V
b10000010100 -
b10000010100 i
11
#120
01
#130
b1111 P"
b11 N"
b1 M"
b1 O"
b0 R"
b0 \
b0 U"
b0 a
b0 o
b0 ="
b0 I"
b0 F"
b0 D"
b0 G"
b0 [
b0 T"
b0 J"
b1000000001 #
b1000000001 8
b100000 >
b100 =
b0 t
b0 H"
1R
0g
b11111111111111111111111111111111 r
1Q
b10000100000 C
b10000100000 Y"
b0 d
b0 l
b10000000000000000000100000000100 +
b10000000000000000000100000000100 ]
b10000100000 $
b10000100000 9
b0 s
b0 u
b0 |
b0 v
b0 z
b0 w
b0 x
b11111 B
b11111 X"
b11 W
b11 ;"
b11011111 P
b10000100000 *
b10000100000 O
b0 q
b0 {
b0 f
b0 k
b0 S
b0 S"
b0 Z"
03"
b10 Z
b10 <"
b1101111100 G
1E
b0 @
b0 T
b0 ["
b0 U
b0 W"
15"
16"
b1101111100 X
b11 L
b0 A
b0 V"
b0 J
b0 I
b11 H
b11111 M
b11 8"
b11111 9"
b11 Q"
b1100000000000000000011011111 0
b1100000000000000000011011111 5
b1100000000000000000011011111 ?
b1100000000000000000011011111 4"
b1100000000000000000011011111 K"
b100000110 3
b11110011000 Y
b10000011100 V
b10000011000 -
b10000011000 i
11
#140
01
#150
b10000000000000001000111111001000 \
b10000000000000001000111111001000 U"
b10000000000000001000111111001000 a
b10000000000000001000111111001000 o
b10000000000000001000111111001000 ="
b1000111111101000 [
b1000111111101000 T"
b1000111111101000 H"
0b
b100011111110100010000000 I"
b11101000 F"
b1000111111101000 D"
0m
b11101 B
b11101 X"
b1111111111111110111000000001000 u
b1000111111101000 G"
b10000000000000001000111111101000 J"
b1 t
1c
b1 y
01"
1g
b10111 r
0Q
b11 )
b11 N
b11 L"
b10000000000000001000111111100000 p
b11111111111111111111111111101000 s
b10000000000000001000111111001000 |
b10000000000000001000111111001000 v
b11111111111111111110000000000000 z
b111111111111111111111111 w
b11111111111111111111111111111111 x
b11111111111111111111111111100000 d
b11111111111111111111111111100000 l
0."
b0 W
b0 ;"
b0 &
b0 :
b11111111111111111111111111100000 P
b1110000000 G
b10000000000000001000111111101000 q
b110000000000000001000111111001000 {
b10000000000000001000111111101000 f
b10000000000000001000111111101000 k
b10000000000000001000111111101000 S
b10000000000000001000111111101000 S"
b10000000000000001000111111101000 Z"
13"
b0 Z
b0 <"
0%
0.
b100101 >
b11110000 =
0E
b10000000000000001000111111101000 @
b10000000000000001000111111101000 T
b10000000000000001000111111101000 ["
b11101 U
b11101 W"
05"
06"
b0 #
b0 8
b1110111101111111111110000000 X
b1001 L
b11101 A
b11101 V"
b11101 J
b11101 I
b11111 K
b11111 H
b100000 M
b1001 8"
b100000 9"
b1001 Q"
b0 $
b0 9
b10000000000000001000111111001000 C
b10000000000000001000111111001000 Y"
b100111101111011111111111100000 0
b100111101111011111111111100000 5
b100111101111011111111111100000 ?
b100111101111011111111111100000 4"
b100111101111011111111111100000 K"
b10000000000000001000111111001000 +
b10000000000000001000111111001000 ]
b1000111111101000 *
b1000111111101000 O
b11011111 3
b1100000000 Y
b1110000000 V
b1101111100 -
b1101111100 i
b10000000000000000000100000001000 j
11
#160
01
#170
b10000000000000001000111111100100 +
b10000000000000001000111111100100 ]
b10000000000000001000111111100100 C
b10000000000000001000111111100100 Y"
b10000000000000001000111111100100 \
b10000000000000001000111111100100 U"
b10000000000000001000111111100100 a
b10000000000000001000111111100100 o
b10000000000000001000111111100100 ="
b0 ;
b100000 >
b100 =
b10000100000 *
b10000100000 O
b1111111111111110111000000100011 r
0c
b0 y
0R
b10000100000 [
b10000100000 T"
b10000000000000001000111111011100 s
b1111111001 #
b1111111001 8
b1111 &
b1111 :
b10000100000 $
b10000100000 9
b10000100000 H"
b1111 )
b1111 N
b1111 L"
b1000010000000000000 I"
b100000 F"
b10000100000 D"
b1110000000000 z
b0 w
b0 x
b11100 d
b11100 l
b11111 B
b11111 X"
1%
1.
b10000100000 G"
b10000100000 J"
b11100 P
b1110000100 G
b11111 U
b11111 W"
b1000 p
b10000000000000001000111111010100 u
b10000000000000001000111111100100 |
b10000000000000001000111111100100 v
b1110111111000000000001110000 X
b101011 L
b11111 I
b0 K
b0 H
b11100 M
b101011 8"
b11100 9"
b101011 Q"
b10000000000000001000111111001000 q
b10000000000000001000111111100100 {
b10000000000000001000111111001000 f
b10000000000000001000111111001000 k
b10101111101111110000000000011100 0
b10101111101111110000000000011100 5
b10101111101111110000000000011100 ?
b10101111101111110000000000011100 4"
b10101111101111110000000000011100 K"
b10000000000000001000111111001000 @
b10000000000000001000111111001000 T
b10000000000000001000111111001000 ["
b10000100000 S
b10000100000 S"
b10000100000 Z"
b11100000 3
b1111110100 Y
b1110000100 V
b1110000000 -
b1110000000 i
11
#180
01
#190
b1111111000 #
b1111111000 8
b10000000000000001000111111100000 +
b10000000000000001000111111100000 ]
b10000000000000001000111111100000 C
b10000000000000001000111111100000 Y"
b10000000000000001000111111100000 \
b10000000000000001000111111100000 U"
b10000000000000001000111111100000 a
b10000000000000001000111111100000 o
b10000000000000001000111111100000 ="
b0 >
b0 =
b0 $
b0 9
b0 I"
b0 F"
b0 D"
b0 *
b0 O
b0 G"
b0 [
b0 T"
b0 J"
b1111111111111110111000000100111 r
b10000000000000001000111111100000 |
b10000000000000001000111111100000 v
b0 H"
b10000000000000001000111111011000 s
b10000000000000001000111111010000 u
b10000000000000001000111111100000 {
b1100000000000 z
b11000 d
b11000 l
b11110 B
b11110 X"
b11000 P
b0 S
b0 S"
b0 Z"
b1110001000 G
b11110 U
b11110 W"
b1110111110000000000001100000 X
b11110 I
b11000 M
b11000 9"
b10101111101111100000000000011000 0
b10101111101111100000000000011000 5
b10101111101111100000000000011000 ?
b10101111101111100000000000011000 4"
b10101111101111100000000000011000 K"
b11100001 3
b1111101000 Y
b1110001000 V
b1110000100 -
b1110000100 i
11
#200
01
#210
b1 M"
b1 O"
b1111 P"
b11 N"
b10000000000000001000111111001000 +
b10000000000000001000111111001000 ]
b10000000000000001000111111001000 C
b10000000000000001000111111001000 Y"
b10000000000000001000111111001000 \
b10000000000000001000111111001000 U"
b0 R"
b10000000000000001000111111001000 a
b10000000000000001000111111001000 o
b10000000000000001000111111001000 ="
b10 e
b10 }
b10 -"
b100101 >
b11110000 =
1R
b1111111111111110111000000110111 r
0c
b10000000000000001000111111001000 |
b10000000000000001000111111001000 v
b0 y
b1 )
b1 N
b1 L"
b0 p
b10000000000000001000111111001000 s
b10000000000000001000111111001000 u
b10000000000000001000111111001000 {
0g
b0 #
b0 8
b0 &
b0 :
b0 z
b0 w
b0 x
b0 d
b0 l
b11110 B
b11110 X"
1Q
0%
0.
b11111111111111111111000000100101 P
1%"
b1110001100 G
b0 U
b0 W"
03"
b1110100000111100000010010100 X
b0 L
b0 I
b11110 K
b100101 M
1:"
b0 8"
b100101 9"
b0 Q"
b11101000001111000000100101 0
b11101000001111000000100101 5
b11101000001111000000100101 ?
b11101000001111000000100101 4"
b11101000001111000000100101 K"
b11100010 3
b11111111111111111100010000100000 Y
b1110001100 V
b1110001000 -
b1110001000 i
11
#220
01
#230
b1111 P"
b11 N"
b10000000000000000000000000000000 +
b10000000000000000000000000000000 ]
b0 E"
b1 M"
b1 O"
b10000000000000000000000000000000 C
b10000000000000000000000000000000 Y"
b10000000000000000000000000000000 \
b10000000000000000000000000000000 U"
b0 R"
b0 e
b0 }
b0 -"
b10000000000000000000000000000000 a
b10000000000000000000000000000000 o
b10000000000000000000000000000000 ="
b0 W
b0 ;"
bx I"
b0xxxxxxxx F"
b0xxxxxxxxxxxxxxxxxxxxxxxx D"
1n
02"
b0xxxxxxxxxxxxxxxx G"
bx J"
b0 t
0c
b0 y
b1111 )
b1111 N
b1111 L"
b1111111111111111111111111111111 r
00"
1g
b10000000000000000000000000000000 s
b10000000000000000000000000000000 u
b10000000000000000000000000000000 |
b10000000000000000000000000000000 v
b10000000000000000000000000000000 z
b10000000000000000000000000000000 w
b10000000000000000000000000000000 x
b10000000000000000000000000000000 d
b10000000000000000000000000000000 l
0Q
b0 q
b10000000000000000000000000000000 {
b0 f
b0 k
bx S
bx S"
bx Z"
b10 B
b10 X"
0."
0%"
b1110010000 G
b10000000000000000000000000000000 P
b0 @
b0 T
b0 ["
b10 U
b10 W"
13"
b10100000000000000000 X
b1111 L
b0 A
b0 V"
b0 J
b10 I
b10000 K
b0 M
0:"
b1111 8"
b0 9"
b1111 Q"
b111100000000101000000000000000 0
b111100000000101000000000000000 5
b111100000000101000000000000000 ?
b111100000000101000000000000000 4"
b111100000000101000000000000000 K"
b11100011 3
b1110010000 Y
b1110010000 V
b1110001100 -
b1110001100 i
11
#240
01
#250
b10000000000000000000011100010000 +
b10000000000000000000011100010000 ]
b10000000000000000000011100010000 C
b10000000000000000000011100010000 Y"
b10000000000000000000011100010000 \
b10000000000000000000011100010000 U"
b10000000000000000000011100010000 a
b10000000000000000000011100010000 o
b10000000000000000000011100010000 ="
b0 *
b0 O
0n
b1 t
b0 [
b0 T"
b0 H"
b1111111111111111111100011101111 r
b11 )
b11 N
b11 L"
b10000000 I"
b0 F"
b0 D"
b10000000000000000000011100010000 s
b10000000000000000000011100010000 u
0c
b10000000000000000000011100010000 |
b10000000000000000000011100010000 v
b0 y
b0 G"
b10000000000000000000000000000000 J"
b11100010000 z
b11100010000 w
b11100010000 x
b11100010000 d
b11100010000 l
b10000000000000000000000000000000 q
b10000000000000000000011100010000 {
b10000000000000000000000000000000 f
b10000000000000000000000000000000 k
b1110010100 G
b11100010000 P
b10000000000000000000000000000000 @
b10000000000000000000000000000000 T
b10000000000000000000000000000000 ["
b1000010000001110001000000 X
b1001 L
b10 A
b10 V"
b10 J
b0 K
b11100 H
b10000 M
b1001 8"
b10000 9"
b1001 Q"
b100100010000100000011100010000 0
b100100010000100000011100010000 5
b100100010000100000011100010000 ?
b100100010000100000011100010000 4"
b100100010000100000011100010000 K"
b10000000000000000000000000000000 S
b10000000000000000000000000000000 S"
b10000000000000000000000000000000 Z"
b11100100 3
b1111111010100 Y
b1110010100 V
b1110010000 -
b1110010000 i
11
#260
01
#270
b10000000000000001000111111011000 +
b10000000000000001000111111011000 ]
b10000000000000001000111111011000 C
b10000000000000001000111111011000 Y"
b10000000000000001000111111011000 \
b10000000000000001000111111011000 U"
b10000000000000001000111111011000 a
b10000000000000001000111111011000 o
b10000000000000001000111111011000 ="
b10000000 ;
b10000000000000000000011100010000 $
b10000000000000000000011100010000 9
b10000 >
b111 =
b10000000000000000000011100010000 *
b10000000000000000000011100010000 O
0R
b10000000000000000000011100010000 [
b10000000000000000000011100010000 T"
b1111111111111110111000000100111 r
b1111110110 #
b1111110110 8
b1111 &
b1111 :
b10000000000000000000011100010000 H"
b1111 )
b1111 N
b1111 L"
b1110001000010000000 I"
b10000 F"
b11100010000 D"
b10000 d
b10000 l
b10000000000000001000111111011000 s
1%
1.
b11100010000 G"
b10000000000000000000011100010000 J"
b10000 P
b1110011000 G
b0 p
b10000000000000001000111111011000 u
b10000000000000001000111111011000 |
b10000000000000001000111111011000 v
b1000000000000 z
b0 w
b0 x
b1111000010000000000001000000 X
b101011 L
b11110 A
b11110 V"
b11110 J
b0 H
b101011 8"
b101011 Q"
b10000000000000001000111111001000 q
b10000000000000001000111111011000 {
b10000000000000001000111111001000 f
b10000000000000001000111111001000 k
b10101111110000100000000000010000 0
b10101111110000100000000000010000 5
b10101111110000100000000000010000 ?
b10101111110000100000000000010000 4"
b10101111110000100000000000010000 K"
b10000000000000001000111111001000 @
b10000000000000001000111111001000 T
b10000000000000001000111111001000 ["
b10000000000000000000011100010000 S
b10000000000000000000011100010000 S"
b10000000000000000000011100010000 Z"
b11100101 3
b1111011000 Y
b1110011000 V
b1110010100 -
b1110010100 i
11
#280
01
#290
b10000000000000000000011100010000 C"
b10000 ?"
b10000 @"
b10000000000000000000011100010000 E"
b11100010000 A"
b11100010000 B"
bx I"
b0xxxxxxxx F"
b10000xxxxxxxxxxxxxxxxxxxxxxxx D"
b0xxxxxxxxxxxxxxxx G"
bx J"
b10000000000000000000011100010000 C
b10000000000000000000011100010000 Y"
b10000000000000000000011100010000 (
b10000000000000000000011100010000 D
b10000000000000000000011100010000 >"
bx H"
b10000000000000000000011100010000 ,
b10000000000000000000011100010000 6
b1111110110 !
b1111110110 4
1R
b100101 >
b11110000 =
b0 ;
1"
1'
b0 #
b0 8
b0 &
b0 :
b100 B
b100 X"
b1 Z
b1 <"
1/
0%
0.
b0 $
b0 9
bx S
bx S"
bx Z"
b10000000000000000000011100010000 *
b10000000000000000000011100010000 O
b1110011100 G
b100 U
b100 W"
b10000000000000000000011100010000 [
b10000000000000000000011100010000 T"
b1111000100000000000001000000 X
b100011 L
b100 I
b100011 8"
b100011 Q"
b10001111110001000000000000010000 0
b10001111110001000000000000010000 5
b10001111110001000000000000010000 ?
b10001111110001000000000000010000 4"
b10001111110001000000000000010000 K"
b11100110 3
b1111011100 Y
b1110011100 V
b1110011000 -
b1110011000 i
11
#300
01
